LASSO Regression
…
Code

# Missing value check

naniar::miss_var_summary(df)

# A tibble: 24 × 3
   variable                                     n_miss pct_miss
   <chr>                                         <int>    <num>
 1 Mother's age                                   6036    27.3 
 2 Father's age                                   5986    27.1 
 3 Maternal gene                                  2810    12.7 
 4 Gender                                         2173     9.84
 5 History of anomalies in previous pregnancies   2172     9.84
 6 Disorder Subclass                              2168     9.82
 7 No. of previous abortion                       2162     9.79
 8 Birth defects                                  2154     9.75
 9 H/O serious maternal illness                   2152     9.75
10 Respiratory Rate (breaths/min)                 2149     9.73
# ℹ 14 more rows
…
